{
    "KPlugin": {
        "Id": "rocs_graphlayoutplugin",
        "Name": "Graph Layout",
        "Name[ar]": "تخطيط الرسم",
        "Name[ca@valencia]": "Disposició del graf",
        "Name[ca]": "Disposició del graf",
        "Name[cs]": "Rozvržení grafu",
        "Name[de]": "Graphenlayout",
        "Name[el]": "Διάταξη γράφου",
        "Name[en_GB]": "Graph Layout",
        "Name[es]": "Diseño del gráfico",
        "Name[fi]": "Graafin asettelu",
        "Name[fr]": "Mise en page du graphe",
        "Name[it]": "Disposizione dei grafi",
        "Name[ka]": "გრაფიკის განლაგება",
        "Name[ko]": "그래프 레이아웃",
        "Name[nl]": "Indeling grafen",
        "Name[pl]": "Układ grafu",
        "Name[pt]": "Disposição de Grafos",
        "Name[pt_BR]": "Layout do grafo",
        "Name[ru]": "Компоновка графов",
        "Name[sl]": "Postavitev grafa",
        "Name[sv]": "Graflayout",
        "Name[tr]": "Grafik Yerleşimi",
        "Name[uk]": "Компонування графу",
        "Name[x-test]": "xxGraph Layoutxx"
    }
}
